…
Path: [12] Iter: [217] : ELBO (-1674.055166) 
Path: [12] Iter: [218] : ELBO (-1676.221389) 
Path: [12] Iter: [219] : ELBO (-1668.106745) 
Path: [12] Iter: [220] : ELBO (-1707.097966) 
Path: [12] Iter: [221] : ELBO (-1844.746365) 
Path: [12] Iter: [222] : ELBO (-1739.010307) 
Path: [12] Iter: [223] : ELBO (-1676.941974) 
Path: [12] Iter: [224] : ELBO (-1669.081175) 
Path: [12] Iter: [225] : ELBO (-1701.365448) 
Path: [12] Iter: [226] : ELBO (-1824.081618) 
Path: [12] Iter: [227] : ELBO (-1745.774963) 
Path: [12] Iter: [228] : ELBO (-1657.034449) 
Path: [12] Iter: [229] : ELBO (-1658.584512) 
Finished in  10.3 seconds.
# A tibble: 2,247 x 7
   variable    mean  median     sd   mad      q5     q95
   <chr>      <dbl>   <dbl>  <dbl> <dbl>   <dbl>   <dbl>
 1 u[1]      0.0627  0.0906 0.138      0  0.0906  0.0906
 2 u[2]      0.480   0.513  0.153      0  0.495   0.513 
 3 u[3]     -1.08   -1.08   0.0149     0 -1.08   -1.08  
 4 u[4]      0.0687  0.0601 0.0500     0  0.0601  0.0601
 5 u[5]      0.134   0.136  0.0387     0  0.136   0.136 
 6 u[6]     -0.353  -0.367  0.0736     0 -0.367  -0.367 
 7 u[7]      0.937   0.955  0.0774     0  0.953   0.955 
 8 u[8]      0.222   0.258  0.164      0  0.256   0.258 
 9 u[9]     -1.14   -1.16   0.0957     0 -1.16   -1.16  
10 u[10]     0.941   0.970  0.129      0  0.970   0.970 
#  with 2,237 more rows
