…
Path: [12] Iter: [349] : ELBO (-8087.156434)
Path: [12] Iter: [350] : ELBO (-8129.106896)
Path: [12] Iter: [351] : ELBO (-8114.154111)
Path: [12] Iter: [352] : ELBO (-8164.944606)
Path: [12] Iter: [353] : ELBO (-8312.956400)
Path: [12] Iter: [354] : ELBO (-8733.576380)
Path: [12] Iter: [355] : ELBO (-1328159.852924)
Path: [12] Iter: [356] : ELBO (-8639.054712)
Path: [12] Iter: [357] : ELBO (-8623.731671)
Path: [12] Iter: [358] : ELBO (-9058.959963)
Path: [12] Iter: [359] : ELBO (-8376.738642)
Path: [12] Iter: [360] : ELBO (-8373.531560)
Path: [12] Iter: [361] : ELBO (-8386.497402)
Finished in  53.4 seconds.
# A tibble: 5,617 x 7
   variable    mean  median     sd   mad      q5      q95
   <chr>      <dbl>   <dbl>  <dbl> <dbl>   <dbl>    <dbl>
 1 u[1]      0.124   0.246  0.161      0 -0.105   0.246  
 2 u[2]     -0.0636 -0.0980 0.105      0 -0.287   0.0933 
 3 u[3]      0.109   0.241  0.178      0 -0.153   0.241  
 4 u[4]      0.0434 -0.0671 0.272      0 -0.646   0.447  
 5 u[5]      0.107   0.301  0.256      0 -0.266   0.301  
 6 u[6]     -0.0400 -0.0525 0.119      0 -0.142   0.306  
 7 u[7]     -0.0442 -0.147  0.136      0 -0.147   0.159  
 8 u[8]     -0.553  -0.894  0.442      0 -0.894   0.113  
 9 u[9]     -0.130  -0.196  0.0865     0 -0.196  -0.00354
10 u[10]     0.219   0.256  0.0680     0  0.0456  0.256  
#  with 5,607 more rows
