…
Path: [12] Iter: [351] : ELBO (-8262.420667)
Path: [12] Iter: [352] : ELBO (-8148.541976)
Path: [12] Iter: [353] : ELBO (-174156.674681)
Path: [12] Iter: [354] : ELBO (-3090841.481343)
Path: [12] Iter: [355] : ELBO (-154895.452869)
Path: [12] Iter: [356] : ELBO (-12645.547990)
Path: [12] Iter: [357] : ELBO (-254093.149901)
Path: [12] Iter: [358] : ELBO (-27167279.208203)
Path: [12] Iter: [359] : ELBO (-10330.464430)
Path: [12] Iter: [360] : ELBO (-13121.687524)
Path: [12] Iter: [361] : ELBO (-11240.186276)
Path: [12] Iter: [362] : ELBO (-107727663598883.203125)
Path: [12] Iter: [363] : ELBO (-78939702.146904)
Finished in  45.1 seconds.
# A tibble: 5,668 x 7
   variable     mean   median      sd   mad       q5      q95
   <chr>       <dbl>    <dbl>   <dbl> <dbl>    <dbl>    <dbl>
 1 u[1]      0.119    0.118   0.0126      0  0.118    0.118  
 2 u[2]      0.0753   0.0766  0.0186      0  0.0766   0.0766 
 3 u[3]     -0.265   -0.262   0.0349      0 -0.262   -0.262  
 4 u[4]      0.0353   0.0348  0.00647     0  0.0348   0.0348 
 5 u[5]      0.382    0.381   0.0116      0  0.381    0.381  
 6 u[6]     -0.415   -0.418   0.0374      0 -0.418   -0.418  
 7 u[7]     -0.0804  -0.0805  0.00114     0 -0.0805  -0.0805 
 8 u[8]     -0.00863 -0.00787 0.0103      0 -0.00787 -0.00787
 9 u[9]     -0.341   -0.341   0.00518     0 -0.341   -0.341  
10 u[10]     0.471    0.470   0.0169      0  0.470    0.470  
#  with 5,658 more rows
